/home/rborges/NetBeansProjects/Exercicio3/src/main/java/br/ufes/exercicio3/composite/Elemento.java
/home/rborges/NetBeansProjects/Exercicio3/src/main/java/br/ufes/exercicio3/composite/PlacaVideo.java
/home/rborges/NetBeansProjects/Exercicio3/src/main/java/br/ufes/exercicio3/composite/Processador.java
/home/rborges/NetBeansProjects/Exercicio3/src/main/java/br/ufes/exercicio3/Principal.java
/home/rborges/NetBeansProjects/Exercicio3/src/main/java/br/ufes/exercicio3/composite/MemoriaRAM.java
/home/rborges/NetBeansProjects/Exercicio3/src/main/java/br/ufes/exercicio3/builder/ComputadorBuilder.java
/home/rborges/NetBeansProjects/Exercicio3/src/main/java/br/ufes/exercicio3/composite/Todo.java
/home/rborges/NetBeansProjects/Exercicio3/src/main/java/br/ufes/exercicio3/composite/Computador.java
/home/rborges/NetBeansProjects/Exercicio3/src/main/java/br/ufes/exercicio3/builder/ComputadorPadraoBuilder.java
/home/rborges/NetBeansProjects/Exercicio3/src/main/java/br/ufes/exercicio3/builder/ComputadorDiretor.java
/home/rborges/NetBeansProjects/Exercicio3/src/main/java/br/ufes/exercicio3/composite/HD.java
